{
  "$schema": "https://vega.github.io/schema/vega/v5.json",
  "description": "A basic bar chart example, with value labels shown upon mouse hover.",
  "width": 400,
  "height": 200,
  "padding": 5,

  "data": [
    {
      "name": "table",
      "values": "<DVC_METRIC_DATA>"
    }
  ],

  "signals": [
    {
      "name": "tooltip",
      "value": {},
      "on": [
        {"events": "rect:mouseover", "update": "datum"},
        {"events": "rect:mouseout",  "update": "{}"}
      ]
    }
  ],

  "scales": [
    {
      "name": "xscale",
      "type": "band",
      "domain": {"data": "table",
                 "field": "<DVC_METRIC_X>"
      },
      "range": "width",
      "padding": 0.05,
      "round": true
    },
    {
      "name": "yscale",
      "domain": {"data": "table",
                 "field": "<DVC_METRIC_Y>"
      },
      "nice": true,
      "range": "height"
    },
    {
      "name": "color",
      "type": "ordinal",
      "domain": {"data": "table", "field": "<DVC_METRIC_X>"},
      "range": {"scheme": "category10"}
    }
  ],

  "axes": [
    { "orient": "bottom", "scale": "xscale" },
    { "orient": "left", "scale": "yscale" }
  ],

  "marks": [
    {
      "type": "rect",
      "from": {"data":"table"},
      "encode": {
        "enter": {
          "x": {"scale": "xscale", "field": "<DVC_METRIC_X>"},
          "width": {"scale": "xscale", "band": 1},
          "y": {"scale": "yscale", "field": "<DVC_METRIC_Y>"},
          "y2": {"scale": "yscale", "value": 0}
        },
        "update": {
          "fill": {"scale": "color", "field": "Class"}
        },
        "hover": {
          "fill": {"value": "red"}
        }
      }
    },
    {
      "type": "text",
      "encode": {
        "enter": {
          "align": {"value": "center"},
          "baseline": {"value": "bottom"},
          "fill": {"value": "#333"}
        }
      }
    }
  ]
}

